Analítica en la Gestión Financiera
…
as_tibble(penguins)
as.data.frame(penguins)
```
]

.panel[.panel-name[Resultado]
.pull-left[

```r
as_tibble(penguins)
```

```
## # A tibble: 344 × 8
##    species island    bill_length_mm bill_depth_mm flipper_length_mm body_mass_g
##    <fct>   <fct>              <dbl>         <dbl>             <int>       <int>
##  1 Adelie  Torgersen           39.1          18.7               181        3750
##  2 Adelie  Torgersen           39.5          17.4               186        3800
##  3 Adelie  Torgersen           40.3          18                 195        3250
##  4 Adelie  Torgersen           NA            NA                  NA          NA
##  5 Adelie  Torgersen           36.7          19.3               193        3450
##  6 Adelie  Torgersen           39.3          20.6               190        3650
##  7 Adelie  Torgersen           38.9          17.8               181        3625
##  8 Adelie  Torgersen           39.2          19.6               195        4675
##  9 Adelie  Torgersen           34.1          18.1               193        3475
## 10 Adelie  Torgersen           42            20.2               190        4250
## # ℹ 334 more rows
## # ℹ 2 more variables: sex <fct>, year <int>
```
…
.panelset[

.panel[.panel-name[Select]
.center[ 
### ¿Puedes identificar la diferencia al hacer la misma operación?
]
.pull-left[

```r
select(penguins, species, sex, body_mass_g)
```

```
## # A tibble: 344 × 3
##    species sex    body_mass_g
##    <fct>   <fct>        <int>
##  1 Adelie  male          3750
##  2 Adelie  female        3800
##  3 Adelie  female        3250
##  4 Adelie  <NA>            NA
##  5 Adelie  female        3450
##  6 Adelie  male          3650
##  7 Adelie  female        3625
##  8 Adelie  male          4675
##  9 Adelie  <NA>          3475
## 10 Adelie  <NA>          4250
## # ℹ 334 more rows
```
]

.pull-right[

```r
penguins %>%
  select(species, sex, body_mass_g)
```

```
## # A tibble: 344 × 3
##    species sex    body_mass_g
##    <fct>   <fct>        <int>
##  1 Adelie  male          3750
##  2 Adelie  female        3800
##  3 Adelie  female        3250
##  4 Adelie  <NA>            NA
##  5 Adelie  female        3450
##  6 Adelie  male          3650
##  7 Adelie  female        3625
##  8 Adelie  male          4675
##  9 Adelie  <NA>          3475
## 10 Adelie  <NA>          4250
## # ℹ 334 more rows
```
…
```r
penguins %>%
  select(species, sex, body_mass_g) %>%
* arrange(desc(body_mass_g))
```

```
## # A tibble: 344 × 3
##    species sex   body_mass_g
##    <fct>   <fct>       <int>
##  1 Gentoo  male         6300
##  2 Gentoo  male         6050
##  3 Gentoo  male         6000
##  4 Gentoo  male         6000
##  5 Gentoo  male         5950
##  6 Gentoo  male         5950
##  7 Gentoo  male         5850
##  8 Gentoo  male         5850
##  9 Gentoo  male         5850
## 10 Gentoo  male         5800
## # ℹ 334 more rows
```
…
.panel[.panel-name[Resultado]
### El resultado es un nuevo factor **year_factor** con niveles **2007**, **2008** y **2009**
.pull-left[

```r
penguins_new <-
  penguins %>%
  mutate(year_factor = 
*          factor(year,
*                 levels = unique(year)))
penguins_new
```

```
## # A tibble: 344 × 9
##    species island    bill_length_mm bill_depth_mm flipper_length_mm body_mass_g
##    <fct>   <fct>              <dbl>         <dbl>             <int>       <int>
##  1 Adelie  Torgersen           39.1          18.7               181        3750
##  2 Adelie  Torgersen           39.5          17.4               186        3800
##  3 Adelie  Torgersen           40.3          18                 195        3250
##  4 Adelie  Torgersen           NA            NA                  NA          NA
##  5 Adelie  Torgersen           36.7          19.3               193        3450
##  6 Adelie  Torgersen           39.3          20.6               190        3650
##  7 Adelie  Torgersen           38.9          17.8               181        3625
##  8 Adelie  Torgersen           39.2          19.6               195        4675
##  9 Adelie  Torgersen           34.1          18.1               193        3475
## 10 Adelie  Torgersen           42            20.2               190        4250
## # ℹ 334 more rows
## # ℹ 3 more variables: sex <fct>, year <int>, year_factor <fct>
```
…
# stringr: ejercicio

.panelset[
.panel[.panel-name[Mutate]

### ¿Qué hace este chunk?

```r
penguins %>%
  select(species, island) %>%
* mutate(ISLAND = str_to_upper(island))
```

```
## # A tibble: 344 × 3
##    species island    ISLAND   
##    <fct>   <fct>     <chr>    
##  1 Adelie  Torgersen TORGERSEN
##  2 Adelie  Torgersen TORGERSEN
##  3 Adelie  Torgersen TORGERSEN
##  4 Adelie  Torgersen TORGERSEN
##  5 Adelie  Torgersen TORGERSEN
##  6 Adelie  Torgersen TORGERSEN
##  7 Adelie  Torgersen TORGERSEN
##  8 Adelie  Torgersen TORGERSEN
##  9 Adelie  Torgersen TORGERSEN
## 10 Adelie  Torgersen TORGERSEN
## # ℹ 334 more rows
```
]

.panel[.panel-name[Join]

### ¿Y este otro?

```r
penguins %>%
  select(species, island) %>%
  mutate(ISLAND = str_to_upper(island)) %>%
* mutate(species_island = str_c(species, ISLAND, sep = "_"))
```

```
## # A tibble: 344 × 4
##    species island    ISLAND    species_island  
##    <fct>   <fct>     <chr>     <chr>           
##  1 Adelie  Torgersen TORGERSEN Adelie_TORGERSEN
##  2 Adelie  Torgersen TORGERSEN Adelie_TORGERSEN
##  3 Adelie  Torgersen TORGERSEN Adelie_TORGERSEN
##  4 Adelie  Torgersen TORGERSEN Adelie_TORGERSEN
##  5 Adelie  Torgersen TORGERSEN Adelie_TORGERSEN
##  6 Adelie  Torgersen TORGERSEN Adelie_TORGERSEN
##  7 Adelie  Torgersen TORGERSEN Adelie_TORGERSEN
##  8 Adelie  Torgersen TORGERSEN Adelie_TORGERSEN
##  9 Adelie  Torgersen TORGERSEN Adelie_TORGERSEN
## 10 Adelie  Torgersen TORGERSEN Adelie_TORGERSEN
## # ℹ 334 more rows
```
…
.panelset[
.panel[.panel-name[Des-ordenando (Un-tidying)]

### ¡Ambos datasets de pingüinos ya están en formato tidy!

Podemos fingir que `penguins` no estuviera tidy y que, en cambio, se viera como `untidy_penguins` abajo, donde **body_mass_g** se registró por separado para pingüinos *male*, *female* y con **sex** igual a *NA*.

```r
untidy_penguins <- 
  penguins %>% pivot_wider(names_from = sex, values_from = body_mass_g)
untidy_penguins
```

```
## # A tibble: 344 × 9
##    species island    bill_length_mm bill_depth_mm flipper_length_mm  year  male
##    <fct>   <fct>              <dbl>         <dbl>             <int> <int> <int>
##  1 Adelie  Torgersen           39.1          18.7               181  2007  3750
##  2 Adelie  Torgersen           39.5          17.4               186  2007    NA
##  3 Adelie  Torgersen           40.3          18                 195  2007    NA
##  4 Adelie  Torgersen           NA            NA                  NA  2007    NA
##  5 Adelie  Torgersen           36.7          19.3               193  2007    NA
##  6 Adelie  Torgersen           39.3          20.6               190  2007  3650
##  7 Adelie  Torgersen           38.9          17.8               181  2007    NA
##  8 Adelie  Torgersen           39.2          19.6               195  2007  4675
##  9 Adelie  Torgersen           34.1          18.1               193  2007    NA
## 10 Adelie  Torgersen           42            20.2               190  2007    NA
## # ℹ 334 more rows
## # ℹ 2 more variables: female <int>, `NA` <int>
```
…
.panel[.panel-name[Volver a ordenar (Re-tidying)]

### ¡Ahora dejémoslo tidy de nuevo!

Usaremos la ayuda de `pivot_longer()`

```r
untidy_penguins %>%
* pivot_longer(cols = male:`NA`,
*              names_to = "sex",
*              values_to = "body_mass_g")
```

```
## # A tibble: 1,032 × 8
##    species island    bill_length_mm bill_depth_mm flipper_length_mm  year sex   
##    <fct>   <fct>              <dbl>         <dbl>             <int> <int> <chr> 
##  1 Adelie  Torgersen           39.1          18.7               181  2007 male  
##  2 Adelie  Torgersen           39.1          18.7               181  2007 female
##  3 Adelie  Torgersen           39.1          18.7               181  2007 NA    
##  4 Adelie  Torgersen           39.5          17.4               186  2007 male  
##  5 Adelie  Torgersen           39.5          17.4               186  2007 female
##  6 Adelie  Torgersen           39.5          17.4               186  2007 NA    
##  7 Adelie  Torgersen           40.3          18                 195  2007 male  
##  8 Adelie  Torgersen           40.3          18                 195  2007 female
##  9 Adelie  Torgersen           40.3          18                 195  2007 NA    
## 10 Adelie  Torgersen           NA            NA                  NA  2007 male  
## # ℹ 1,022 more rows
## # ℹ 1 more variable: body_mass_g <int>
```
…
Datos: 336,776 vuelos que salieron de NYC en 2013 (Bureau of Transportation Statistics, EE. UU.)

---

## Introducción

```r
flights
```

```
## # A tibble: 336,776 × 19
##     year month   day dep_time sched_dep_time dep_delay arr_time sched_arr_time
##    <int> <int> <int>    <int>          <int>     <dbl>    <int>          <int>
##  1  2013     1     1      517            515         2      830            819
##  2  2013     1     1      533            529         4      850            830
##  3  2013     1     1      542            540         2      923            850
##  4  2013     1     1      544            545        -1     1004           1022
##  5  2013     1     1      554            600        -6      812            837
##  6  2013     1     1      554            558        -4      740            728
##  7  2013     1     1      555            600        -5      913            854
##  8  2013     1     1      557            600        -3      709            723
##  9  2013     1     1      557            600        -3      838            846
## 10  2013     1     1      558            600        -2      753            745
## # ℹ 336,766 more rows
## # ℹ 11 more variables: arr_delay <dbl>, carrier <chr>, flight <int>,
## #   tailnum <chr>, origin <chr>, dest <chr>, air_time <dbl>, distance <dbl>,
## #   hour <dbl>, minute <dbl>, time_hour <dttm>
```
…
## Filtrar filas con `filter()`

Permite quedarte con observaciones según condiciones.

En finanzas: “tráeme solo estas fechas”, “solo este portafolio”, “solo defaults”, “solo operaciones con spread > X”.

--

```r
filter(flights, month == 1, day == 1)
```

```
## # A tibble: 842 × 19
##     year month   day dep_time sched_dep_time dep_delay arr_time sched_arr_time
##    <int> <int> <int>    <int>          <int>     <dbl>    <int>          <int>
##  1  2013     1     1      517            515         2      830            819
##  2  2013     1     1      533            529         4      850            830
##  3  2013     1     1      542            540         2      923            850
##  4  2013     1     1      544            545        -1     1004           1022
##  5  2013     1     1      554            600        -6      812            837
##  6  2013     1     1      554            558        -4      740            728
##  7  2013     1     1      555            600        -5      913            854
##  8  2013     1     1      557            600        -3      709            723
##  9  2013     1     1      557            600        -3      838            846
## 10  2013     1     1      558            600        -2      753            745
## # ℹ 832 more rows
## # ℹ 11 more variables: arr_delay <dbl>, carrier <chr>, flight <int>,
## #   tailnum <chr>, origin <chr>, dest <chr>, air_time <dbl>, distance <dbl>,
## #   hour <dbl>, minute <dbl>, time_hour <dttm>
```
…
> Error: Problem with `filter()` input `..1`.  
> x operaciones solo son posibles para tipos numéricos, lógicos o complejos  
> ℹ Input `..1` es `carrier == "UA" | "AA" | "DL"`.

---

#### Ejemplo: forma correcta (explícita)

```r
flights %>% filter(carrier == "UA" | carrier == "AA" | carrier == "DL")
```

```
## # A tibble: 139,504 × 19
##     year month   day dep_time sched_dep_time dep_delay arr_time sched_arr_time
##    <int> <int> <int>    <int>          <int>     <dbl>    <int>          <int>
##  1  2013     1     1      517            515         2      830            819
##  2  2013     1     1      533            529         4      850            830
##  3  2013     1     1      542            540         2      923            850
##  4  2013     1     1      554            600        -6      812            837
##  5  2013     1     1      554            558        -4      740            728
##  6  2013     1     1      558            600        -2      753            745
##  7  2013     1     1      558            600        -2      924            917
##  8  2013     1     1      558            600        -2      923            937
##  9  2013     1     1      559            600        -1      941            910
## 10  2013     1     1      559            600        -1      854            902
## # ℹ 139,494 more rows
## # ℹ 11 more variables: arr_delay <dbl>, carrier <chr>, flight <int>,
## #   tailnum <chr>, origin <chr>, dest <chr>, air_time <dbl>, distance <dbl>,
## #   hour <dbl>, minute <dbl>, time_hour <dttm>
```

---

#### Ejemplo: forma correcta (recomendada con `%in%`)

```r
flights %>% filter(carrier %in% c("UA", "AA", "DL"))
```

```
## # A tibble: 139,504 × 19
##     year month   day dep_time sched_dep_time dep_delay arr_time sched_arr_time
##    <int> <int> <int>    <int>          <int>     <dbl>    <int>          <int>
##  1  2013     1     1      517            515         2      830            819
##  2  2013     1     1      533            529         4      850            830
##  3  2013     1     1      542            540         2      923            850
##  4  2013     1     1      554            600        -6      812            837
##  5  2013     1     1      554            558        -4      740            728
##  6  2013     1     1      558            600        -2      753            745
##  7  2013     1     1      558            600        -2      924            917
##  8  2013     1     1      558            600        -2      923            937
##  9  2013     1     1      559            600        -1      941            910
## 10  2013     1     1      559            600        -1      854            902
## # ℹ 139,494 more rows
## # ℹ 11 more variables: arr_delay <dbl>, carrier <chr>, flight <int>,
## #   tailnum <chr>, origin <chr>, dest <chr>, air_time <dbl>, distance <dbl>,
## #   hour <dbl>, minute <dbl>, time_hour <dttm>
```
…
(En finanzas: rankings de retornos, riesgos, drawdowns, spreads, moras.)

---

### Ejemplo: ordenar para encontrar las “operaciones” más críticas

En finanzas: “top pérdidas”, “mayores retrasos”, “mayor exposición”.

```r
flights
```

```
## # A tibble: 336,776 × 19
##     year month   day dep_time sched_dep_time dep_delay arr_time sched_arr_time
##    <int> <int> <int>    <int>          <int>     <dbl>    <int>          <int>
##  1  2013     1     1      517            515         2      830            819
##  2  2013     1     1      533            529         4      850            830
##  3  2013     1     1      542            540         2      923            850
##  4  2013     1     1      544            545        -1     1004           1022
##  5  2013     1     1      554            600        -6      812            837
##  6  2013     1     1      554            558        -4      740            728
##  7  2013     1     1      555            600        -5      913            854
##  8  2013     1     1      557            600        -3      709            723
##  9  2013     1     1      557            600        -3      838            846
## 10  2013     1     1      558            600        -2      753            745
## # ℹ 336,766 more rows
## # ℹ 11 more variables: arr_delay <dbl>, carrier <chr>, flight <int>,
## #   tailnum <chr>, origin <chr>, dest <chr>, air_time <dbl>, distance <dbl>,
## #   hour <dbl>, minute <dbl>, time_hour <dttm>
```
…
- ⭐ `everything()`: útil para mover unas variables al inicio del data frame

---

### Ejemplo: selecciona `dep_time`, `dep_delay`, `arr_time`, `arr_delay`

(Piénsalo como: time-stamps y métricas de “desviación”.)

```r
flights
```

```
## # A tibble: 336,776 × 19
##     year month   day dep_time sched_dep_time dep_delay arr_time sched_arr_time
##    <int> <int> <int>    <int>          <int>     <dbl>    <int>          <int>
##  1  2013     1     1      517            515         2      830            819
##  2  2013     1     1      533            529         4      850            830
##  3  2013     1     1      542            540         2      923            850
##  4  2013     1     1      544            545        -1     1004           1022
##  5  2013     1     1      554            600        -6      812            837
##  6  2013     1     1      554            558        -4      740            728
##  7  2013     1     1      555            600        -5      913            854
##  8  2013     1     1      557            600        -3      709            723
##  9  2013     1     1      557            600        -3      838            846
## 10  2013     1     1      558            600        -2      753            745
## # ℹ 336,766 more rows
## # ℹ 11 more variables: arr_delay <dbl>, carrier <chr>, flight <int>,
## #   tailnum <chr>, origin <chr>, dest <chr>, air_time <dbl>, distance <dbl>,
## #   hour <dbl>, minute <dbl>, time_hour <dttm>
```

---

#### Forma 1 (explícita)

```r
select(flights, dep_time, dep_delay, arr_time, arr_delay)
```

```
## # A tibble: 336,776 × 4
##    dep_time dep_delay arr_time arr_delay
##       <int>     <dbl>    <int>     <dbl>
##  1      517         2      830        11
##  2      533         4      850        20
##  3      542         2      923        33
##  4      544        -1     1004       -18
##  5      554        -6      812       -25
##  6      554        -4      740        12
##  7      555        -5      913        19
##  8      557        -3      709       -14
##  9      557        -3      838        -8
## 10      558        -2      753         8
## # ℹ 336,766 more rows
```

---

#### Forma 2 (por prefijos)

```r
select(flights, starts_with("dep") | starts_with("arr"))
```

```
## # A tibble: 336,776 × 4
##    dep_time dep_delay arr_time arr_delay
##       <int>     <dbl>    <int>     <dbl>
##  1      517         2      830        11
##  2      533         4      850        20
##  3      542         2      923        33
##  4      544        -1     1004       -18
##  5      554        -6      812       -25
##  6      554        -4      740        12
##  7      555        -5      913        19
##  8      557        -3      709       -14
##  9      557        -3      838        -8
## 10      558        -2      753         8
## # ℹ 336,766 more rows
```
…
